simulation/qsim/Dividedby2or3.msim.vcd
$comment
	File created using the following command:
		vcd file Dividedby2or3.msim.vcd -direction
$end
$date
	Mon Feb 22 11:23:09 2021
$end
$version
	ModelSim Version 2020.1
$end
$timescale
	1ps
$end

$scope module Dividedby2or3_vlg_vec_tst $end
$var reg 1 ! clock $end
$var reg 1 " reset $end
$var reg 1 # x $end
$var wire 1 $ y1 $end
$var wire 1 % y2 $end

$scope module i1 $end
$var wire 1 & gnd $end
$var wire 1 ' vcc $end
$var wire 1 ( unknown $end
$var tri1 1 ) devclrn $end
$var tri1 1 * devpor $end
$var tri1 1 + devoe $end
$var wire 1 , ~QUARTUS_CREATED_GND~I_combout $end
$var wire 1 - clock~input_o $end
$var wire 1 . clock~inputCLKENA0_outclk $end
$var wire 1 / reset~input_o $end
$var wire 1 0 x~input_o $end
$var wire 1 1 reg_fstate.C~0_combout $end
$var wire 1 2 fstate.C~q $end
$var wire 1 3 reg_fstate.E~0_combout $end
$var wire 1 4 fstate.E~q $end
$var wire 1 5 reg_fstate.A~0_combout $end
$var wire 1 6 fstate.A~q $end
$var wire 1 7 reg_fstate.B~0_combout $end
$var wire 1 8 fstate.B~q $end
$var wire 1 9 reg_fstate.D~0_combout $end
$var wire 1 : fstate.D~q $end
$var wire 1 ; reg_fstate.G~0_combout $end
$var wire 1 < fstate.G~q $end
$var wire 1 = reg_fstate.F~0_combout $end
$var wire 1 > fstate.F~q $end
$var wire 1 ? y1~0_combout $end
$var wire 1 @ y2~0_combout $end
$upscope $end
$upscope $end
$enddefinitions $end
#0
$dumpvars
0!
1"
0#
0$
0%
0&
1'
x(
1)
1*
1+
0,
0-
0.
1/
00
01
02
03
04
05
06
07
08
09
0:
0;
0<
0=
0>
0?
0@
$end
#20000
1!
1-
1.
#40000
0"
0!
0/
0-
0.
1@
1?
1$
1%
#60000
1!
1-
1.
#80000
0!
0-
0.
#100000
1!
1-
1.
#120000
1#
0!
10
0-
0.
0@
0?
17
15
0$
0%
#140000
1!
1-
1.
18
16
07
19
#160000
0#
0!
00
0-
0.
09
11
#180000
1!
1-
1.
08
12
13
01
1@
1%
#200000
1#
0!
10
0-
0.
0@
03
11
0%
#220000
1!
1-
1.
#240000
0#
0!
00
0-
0.
1@
13
01
1%
#260000
1!
1-
1.
14
02
03
05
#280000
0!
0-
0.
#300000
1!
1-
1.
06
04
1?
1$
#320000
1#
0!
10
0-
0.
0@
0?
17
15
0$
0%
#340000
1!
1-
1.
18
16
07
19
#360000
0#
0!
00
0-
0.
09
11
#380000
1!
1-
1.
08
12
13
01
1@
1%
#400000
1#
0!
10
0-
0.
0@
03
11
0%
#420000
1!
1-
1.
#440000
0#
0!
00
0-
0.
1@
13
01
1%
#460000
1!
1-
1.
14
02
03
05
#480000
0!
0-
0.
#500000
1!
1-
1.
06
04
1?
1$
#520000
1#
0!
10
0-
0.
0@
0?
17
15
0$
0%
#540000
1!
1-
1.
18
16
07
19
#560000
0!
0-
0.
#580000
1!
1-
1.
1:
08
09
1?
1;
1$
#600000
0#
0!
00
0-
0.
0?
1=
0;
0$
#620000
1!
1-
1.
1>
0:
1@
1?
0=
13
1$
1%
#640000
0!
0-
0.
#660000
1!
1-
1.
0>
14
05
0?
03
0$
#680000
0!
0-
0.
#700000
1!
1-
1.
06
04
1?
1$
#720000
0!
0-
0.
#740000
1!
1-
1.
#760000
0!
0-
0.
#780000
1!
1-
1.
